{"photos":{"page":1,"pages":32651,"perpage":10,"total":"326501","photo":[{"id":"13897225620","owner":"20912608@N00","secret":"1310279d7d","server":"7206","farm":8,"title":"1770 | 29.04.2014 :: Off\/On","ispublic":1,"isfriend":0,"isfamily":0},{"id":"14079876631","owner":"100521390@N06","secret":"302f03b512","server":"7363","farm":8,"title":"Render of Amazon\u2019s first smartphone leaks","ispublic":1,"isfriend":0,"isfamily":0},{"id":"14079443371","owner":"103336323@N05","secret":"e373f4ff6d","server":"2926","farm":3,"title":"Render of Amazon\u2019s first smartphone leaks","ispublic":1,"isfriend":0,"isfamily":0},{"id":"14082637475","owner":"101333062@N02","secret":"122c5f4465","server":"2905","farm":3,"title":"Render of Amazon\u2019s first smartphone leaks","ispublic":1,"isfriend":0,"isfamily":0},{"id":"14082005225","owner":"57005975@N00","secret":"1149ae239b","server":"5322","farm":6,"title":"There's something about a Theremin...","ispublic":1,"isfriend":0,"isfamily":0},{"id":"13893827088","owner":"100521390@N06","secret":"f9e2a8ef11","server":"2909","farm":3,"title":"Nexus 6 to be based off the LG G3, feature a fingerprint sensor","ispublic":1,"isfriend":0,"isfamily":0},{"id":"13893558977","owner":"83288930@N00","secret":"d026942a50","server":"2897","farm":3,"title":"Postcrossing US-2768955","ispublic":1,"isfriend":0,"isfamily":0},{"id":"13893578947","owner":"46671832@N02","secret":"7b7a8520b8","server":"7423","farm":8,"title":"my casetagram transparent cases....","ispublic":1,"isfriend":0,"isfamily":0},{"id":"14080572804","owner":"101333062@N02","secret":"9e4c0e0e55","server":"7301","farm":8,"title":"Nexus 6 to be based off the LG G3, feature a fingerprint sensor","ispublic":1,"isfriend":0,"isfamily":0},{"id":"14056979376","owner":"103336323@N05","secret":"64a6f53f00","server":"5575","farm":6,"title":"Nexus 6 to be based off the LG G3, feature a fingerprint sensor","ispublic":1,"isfriend":0,"isfamily":0}]},"stat":"ok"}